INDEX VERSION 1.126+/home/paul/git/tripping-octo-ironman/android/.metadata/.plugins/org.eclipse.jdt.core
3800701546.index
1039676812.index
3709061255.index
3848462231.index
3995852191.index
429083567.index
895353237.index
